CATT-LAB.utf8
…
# Standardize the 'TEMP', 'ATEMP', 'HUMIDITY', and 'WINDSPEED' columns

dfb_std <- 
  dfb_org %>% 
  recipe(COUNT ~ .) %>% 
  step_normalize(TEMP, ATEMP, HUMIDITY, WINDSPEED) %>% 
  prep() %>% 
  bake(dfb_org)

dfb_std

## # A tibble: 731 x 12
##    DATE       HOLIDAY WEEKDAY WEATHERSIT   TEMP  ATEMP HUMIDITY WINDSPEED CASUAL
##    <date>     <fct>   <fct>        <dbl>  <dbl>  <dbl>    <dbl>     <dbl>  <dbl>
##  1 2011-01-01 NO      NO               2 -0.552 -0.517   1.15      0.756     331
##  2 2011-01-02 NO      NO               2 -0.779 -0.982   0.538     0.756     131
##  3 2011-01-03 NO      YES              1 -1.68  -1.24   -1.24      0.936     120
##  4 2011-01-04 NO      YES              1 -1.57  -1.40    0.0536   -0.689     108
##  5 2011-01-05 NO      YES              1 -1.51  -1.55   -1.34      0.0332     82
##  6 2011-01-06 NO      YES              1 -1.57  -1.45   -0.722    -1.23       88
##  7 2011-01-07 NO      YES              2 -1.68  -1.34   -1.01     -0.328     148
##  8 2011-01-08 NO      NO               2 -1.68  -1.14   -0.787     0.756      68
##  9 2011-01-09 NO      NO               1 -1.57  -0.775  -1.11      2.20       54
## 10 2011-01-10 NO      YES              1 -1.57  -1.03   -0.852     0.394      41
## #  with 721 more rows, and 3 more variables: REGISTERED <dbl>, MONTH <fct>,
## #   COUNT <dbl>
…
Working with data and exploratory analysis:

#Add a new variable and call it BADWEATHER, which is YES if there is light or heavy rain or snow (i.e., if WEATHERSIT is 3 or 4), and NO otherwise (i.e., if WEATHERSIT is 1 or 2). You know what functions to use at this step.
dfb_org <-
dfb_org %>%
  mutate(BADWEATHER= ifelse(WEATHERSIT <= 2, 'NO', 'YES'))

dfb_org

## # A tibble: 731 x 13
##    DATE       HOLIDAY WEEKDAY WEATHERSIT  TEMP ATEMP HUMIDITY WINDSPEED CASUAL
##    <date>     <chr>   <chr>        <dbl> <dbl> <dbl>    <dbl>     <dbl>  <dbl>
##  1 2011-01-01 NO      NO               2  11    11       81          17    331
##  2 2011-01-02 NO      NO               2   9     6.5     71.5        17    131
##  3 2011-01-03 NO      YES              1   1     4       44          18    120
##  4 2011-01-04 NO      YES              1   2     2.5     64           9    108
##  5 2011-01-05 NO      YES              1   2.5   1       42.5        13     82
##  6 2011-01-06 NO      YES              1   2     2       52           6     88
##  7 2011-01-07 NO      YES              2   1     3       47.5        11    148
##  8 2011-01-08 NO      NO               2   1     5       51          17     68
##  9 2011-01-09 NO      NO               1   2     8.5     46          25     54
## 10 2011-01-10 NO      YES              1   2     6       50          15     41
## #  with 721 more rows, and 4 more variables: REGISTERED <dbl>, COUNT <dbl>,
## #   MONTH <chr>, BADWEATHER <chr>
…
